-7636.104961 0.04021632884 5.47e-05
-7631.038322 0.04020957179 6.43e-05
-7509.477779 0.03751079737 7.27e-05
-7505.517157 0.03743306654 9.7e-05
-7498.521315 0.03665567776 4.98e-05
-7477.606344 0.0358390398 0.0001358
-7441.654927 0.03442191819 0.0001107
-7439.651592 0.03425824489 9.49e-05
-7368.86816 0.03055687526 6.3e-05
-7367.81461 0.03055810276 6.09e-05
-7278.122742 0.0251762083 9.83e-05
-7276.24126 0.02513479261 6.27e-05
-7276.170264 0.02500256452 5.83e-05
-7182.515721 0.01990302302 9.36e-05
-7182.270404 0.01988905145 9.85e-05
-7181.494267 0.01983802455 5.67e-05
-7091.654142 0.01507333063 3.95e-05
-7089.571726 0.01495251584 7.58e-05
-7007.900493 0.01085647762 0.0001437
-6981.862871 0.009888147843 4.56e-05
-6974.920971 0.009533204146 5.42e-05
-6844.211435 0.004852711006 5.04e-05
-6842.298374 0.004986258879 3.5e-05
-6787.511781 0.002613342443 4.02e-05
-6780.538712 0.002542804142 4.75e-05
-6779.538521 0.002394051334 4.98e-05
-6770.276538 0.002198615183 5.26e-05
-6769.582829 0.002279695449 5.23e-05
-6746.616438 0.001720976096 0.0001405
-6745.579325 0.001779123515 5.38e-05
-6742.647248 0.001643069526 0.0001228
-6668.888508 -0.0003401845558 4.61e-05
-6632.936677 -0.00113486891 6.62e-05
-6553.198082 -0.002573522888 0.0001487
-6545.08539 -0.002572227949 0.0002181
-6489.193467 -0.003940886532 0.0001958
-6488.245906 -0.003261272549 0.0001005
-6479.399119 -0.003837635534 0.0001887
-6461.328896 -0.004040674664 4.91e-05
-6460.330987 -0.004048842391 5.73e-05
-6458.329047 -0.004080119634 7.82e-05
-6391.620837 -0.004951194941 0.0002677
-6390.669863 -0.005081156904 0.0004296
-6354.655529 -0.005200020438 0.0001255
-6352.635698 -0.005316635276 0.0001613
-6276.876516 -0.00610999713 0.0001957
-6267.872996 -0.006087182407 0.0001016
-6256.855259 -0.006098513408 0.0001687
-6247.013591 -0.006369852398 0.0002238
-6237.04796 -0.006049543398 0.0005506
-6227.015805 -0.006221863357 0.0005716
-6226.072577 -0.006727078171 0.0004448
-6189.120112 -0.007481778809 0.0007944
-6172.229814 -0.00707749838 0.0005777
-6170.195187 -0.006958217308 0.000126
-6168.160247 -0.007208714443 0.0001483
-6144.185498 -0.006496592313 0.0003785
-6122.331261 -0.007093448252 0.0002268
-6098.35048 -0.007804841387 0.0001515
-6097.408779 -0.007773577145 0.0001309
-5993.619632 -0.009591897997 0.0001315
-5985.748604 -0.009499767417 0.0002122
-5966.686125 -0.009810794051 0.0002482
-5919.961796 -0.01181369803 0.000264
-5910.97702 -0.01135242821 0.0003454
-5894.010301 -0.01181036038 8.24e-05
-5892.968601 -0.01123991994 0.0002214
-5891.012701 -0.01181771263 6.37e-05
-5889.008233 -0.01190365079 8.86e-05
-5887.011413 -0.01181840597 0.0001545
-5884.947766 -0.01211603372 0.0003367
-5880.939388 -0.01277826069 0.000279
-5877.971611 -0.01273044526 0.0003327
-5864.040572 -0.01302216511 0.0002654
-5843.140435 -0.01350170649 0.0002526
-5836.043041 -0.01317318593 0.0002095
-5830.169365 -0.01417983877 0.0002609
-5772.345428 -0.01566519161 0.0002941
-5765.3399 -0.01540018901 0.0003858
-5732.319849 -0.01695420442 0.0001136
-5727.464025 -0.01726124678 0.0006009
-5705.452365 -0.01829159815 0.000354
-5704.532748 -0.01870857655 0.0003679
-5701.532275 -0.01885578705 0.0005402
-5696.536509 -0.01859643158 0.0003163
-5663.661783 -0.01934652821 0.0003186
-5662.65634 -0.01980901443 0.0003613
-5654.651746 -0.0191574716 0.0003706
-5651.655778 -0.0199656239 0.0002532
-5606.80062 -0.0205998383 0.0002137
-5601.84263 -0.02136994152 0.0002537
-5545.929413 -0.02256328831 0.0001569
-5542.872748 -0.02268131776 0.0001485
-5524.996933 -0.02341321006 0.0001075
-5517.947671 -0.02339497035 0.0001349
-5514.965868 -0.02262050238 0.0003213
-5511.985838 -0.02385380072 0.0003177
-5472.004944 -0.02454546451 0.0003043
-5469.211117 -0.02437859611 0.0004482
-5454.130253 -0.02453777861 0.0003486
-5429.255549 -0.02524826585 0.0002736
-5418.257811 -0.0249645687 0.0001972
-5405.219584 -0.0256581678 0.0003017
-5390.278432 -0.02592878403 0.0002739
-5386.382987 -0.0255514249 0.0002848
-5366.431321 -0.02575136355 6.35e-05
-5363.405834 -0.02614140994 0.0002303
-5358.416485 -0.02597735682 0.0003675
-5353.44753 -0.02589818949 0.0003072
-5337.50947 -0.02641445952 0.0003609
-5325.611523 -0.02659836214 0.000521
-5302.604399 -0.02704226882 0.0003045
-5289.687862 -0.02711502744 0.0003318
-5287.556132 -0.02685313834 0.0005053
-5285.672754 -0.02626217406 3.7e-05
-5279.726194 -0.0263419478 2.41e-05
-5275.660475 -0.02627955082 3.5e-05
-5274.688975 -0.0263985651 8.87e-05
-5269.641399 -0.02635016726 3.41e-05
-5265.592192 -0.02627964747 5.23e-05
-5261.704642 -0.02638733133 4.93e-05
-5245.701182 -0.02645914416 3.89e-05
-5241.734576 -0.02661754453 0.0004879
-5237.744146 -0.02650818394 0.000382
-5227.873097 -0.02646202755 3.01e-05
-5222.806769 -0.02640815155 2.98e-05
-5210.781109 -0.02635930229 4.59e-05
-5206.899631 -0.02716516174 0.0004205
-5170.985883 -0.02673431 0.0007314
-5158.004694 -0.0263380241 0.0003918
-5153.985277 -0.02599244037 0.0004078
-5151.034176 -0.02619370902 0.0002285
-5110.154099 -0.02607928878 4.69e-05
-5102.1514 -0.02584370503 0.0004261
-5098.143982 -0.02606026038 0.0003557
-5094.123712 -0.0262694237 0.0002885
-4973.538952 -0.02618163844 5.55e-05
-4963.571851 -0.02604456083 6.72e-05
-4960.561915 -0.02589458653 7.8e-05
-4954.517874 -0.02383786813 0.0002005
-4948.531281 -0.02431120229 0.0001342
-4947.569679 -0.02437142793 0.0001428
-4934.592781 -0.02328240623 0.0005584
-4920.609496 -0.02519111483 5.21e-05
-4917.652798 -0.02523156311 5.98e-05
-4895.753872 -0.02467904729 5.53e-05
-4841.784405 -0.02200467296 2.85e-05
-4830.960116 -0.02196991536 0.0001747
-4813.872821 -0.02127069029 0.0001589
-4805.976433 -0.02137180971 0.0003008
-4801.989917 -0.02137237291 5.85e-05
-4797.969114 -0.02117554536 4.34e-05
-4781.029467 -0.02060094959 0.0010431
-4776.079814 -0.02120000558 0.0005127
-4721.210631 -0.01978814068 0.0002042
-4715.259631 -0.01952647885 0.0003431
-4672.367082 -0.0188142114 0.0002311
-4666.360718 -0.01853485167 0.0003035
-4656.415061 -0.01806752073 0.0001834
-4647.365565 -0.0180597368 0.0002887
-4529.712213 -0.01575373057 0.0002464
-4502.841721 -0.01586781861 0.0002918
-4491.877744 -0.01522457873 3.71e-05
-4488.86469 -0.01515675655 3.88e-05
-4468.924027 -0.0152389567 0.0001964
-4463.901957 -0.01517067533 0.0002082
-4459.906176 -0.014919959 5.64e-05
-4455.895688 -0.01479105972 8.95e-05
-4439.999514 -0.01485271586 8.38e-05
-4408.045246 -0.01492950878 0.0002396
-4406.085898 -0.01469543279 0.0002325
-4404.012206 -0.01471869109 0.0002295
-4387.038229 -0.01436332573 1.97e-05
-4383.098984 -0.01427124582 5.39e-05
-4380.139093 -0.01429463939 5.9e-05
-4377.137035 -0.0142068833 5.24e-05
-4376.891021 -0.01423651966 4.24e-05
-4374.106755 -0.0145557551 0.0001461
-4373.087951 -0.0143703024 5.75e-05
-4339.180318 -0.01466952339 0.0004416
-4281.353187 -0.01438368912 8.33e-05
-4268.462434 -0.01440874788 9.19e-05
-4255.411855 -0.01500831616 0.000251
-4240.48924 -0.01475393602 6.52e-05
-4196.661906 -0.01498024649 0.0006144
-4192.63869 -0.01556703206 0.0002821
-4159.690459 -0.01534474225 3.42e-05
-4143.779856 -0.015559384 5.78e-05
-4140.775509 -0.01570801223 7.04e-05
-4138.811795 -0.01558506849 4.68e-05
-4127.806292 -0.01562873519 0.0005942
-4124.675035 -0.01590449919 0.000342
-4123.764167 -0.01609527263 0.0003086
-4121.803358 -0.01616278953 0.0004272
-4119.897034 -0.01585604801 0.0002426
-4118.811132 -0.01563520777 0.0003001
-4117.891015 -0.01593430224 9.02e-05
-4114.823402 -0.01581573003 6.54e-05
-4113.814356 -0.01597431944 7.34e-05
-4110.920865 -0.01597075646 5.67e-05
-4104.879089 -0.01644707842 3.84e-05
-4101.819215 -0.01646603127 3.48e-05
-4100.896775 -0.0160758521 6.93e-05
-4075.921814 -0.01636075963 5.45e-05
-4074.95262 -0.01646315231 0.0002218
-4062.017305 -0.01658332198 4.02e-05
-4050.94316 -0.0166766116 7.48e-05
-4045.995788 -0.01670899724 4.32e-05
-4037.114128 -0.01709788936 0.000366
-4019.127338 -0.01703310846 0.0003187
-4008.158723 -0.01703453475 0.0001258
-3998.179007 -0.01699985504 0.0001112
-3917.345813 -0.01780122373 0.0001012
-3916.290046 -0.01767983639 0.0001309
-3909.418984 -0.01758610508 6.28e-05
-3897.263713 -0.01793840766 0.0002496
-3881.343287 -0.01805042108 0.0004283
-3845.61998 -0.01774271449 0.0001811
-3839.584006 -0.01778302279 0.0002664
-3805.688763 -0.01757380281 0.0001183
-3801.696781 -0.01761444898 0.0001212
-3796.737189 -0.01753866033 0.0001745
-3792.730484 -0.01764671791 0.0001734
-3789.809838 -0.01748096648 0.0001738
-3786.719549 -0.01750185371 0.0006013
-3785.732842 -0.01745312357 0.0004746
-3762.767322 -0.01765349018 0.0004229
-3751.899871 -0.01718867318 0.0004516
-3736.91344 -0.01750137996 0.0004131
-3717.982306 -0.01744102622 8.08e-05
-3712.986251 -0.01697483551 0.0001127
-3706.967011 -0.01688180158 0.0001186
-3705.96215 -0.01698168899 4.68e-05
-3702.923507 -0.01702947644 0.0001506
-3685.989873 -0.01707123442 0.0003689
-3664.15055 -0.01720886787 0.0003732
-3639.099133 -0.01615703924 0.0001638
-3628.179103 -0.01605551043 0.0007554
-3603.14515 -0.01557666498 0.0005911
-3580.308032 -0.0148755774 0.0006129
-3577.329478 -0.01554881381 0.0004548
-3566.351959 -0.01492444361 0.0001202
-3560.414531 -0.01473437574 6.56e-05
-3538.159174 -0.01484594792 0.0003031
-3536.399349 -0.01458814489 0.0002379
-3532.488655 -0.0143027127 0.0003792
-3527.412437 -0.0147775806 0.0002901
-3526.394454 -0.0146416241 0.0003633
-3519.520824 -0.01448292913 0.0003438
-3518.385394 -0.0142911651 0.0002462
-3517.508165 -0.01460792996 0.000681
-3511.587053 -0.01412576772 0.0002674
-3505.481436 -0.01372612585 0.0001676
-3502.513239 -0.01363638466 0.0002087
-3499.414448 -0.01356640461 0.0002593
-3496.259252 -0.01356421655 0.0001265
-3491.511699 -0.01371383713 0.0002158
-3486.512345 -0.0136817689 0.0002456
-3484.612266 -0.01353738013 0.0002509
-3482.589062 -0.01330214887 0.0003031
-3477.657307 -0.01336321209 0.0002396
-3475.597148 -0.01318355457 0.0002448
-3468.674457 -0.01284367867 0.0002651
-3464.652948 -0.01308077091 0.0003
-3460.494467 -0.01272793266 0.0001237
-3453.546557 -0.01259496757 0.0002237
-3450.696357 -0.01273130922 0.0002333
-3447.691698 -0.01238367429 0.0001158
-3444.703058 -0.01227839953 0.0001894
-3419.813232 -0.01219520413 0.0003023
-3416.789558 -0.01169977216 0.0003783
-3412.750633 -0.01161452031 0.0003019
-3411.748505 -0.01196883521 0.0002333
-3408.813899 -0.01170655117 0.0004208
-3403.861668 -0.01150834765 0.0002677
-3399.795826 -0.01110477589 0.0001417
-3396.85847 -0.01105363594 0.0001214
-3392.686079 -0.0110058498 0.000112
-3383.783269 -0.01071471086 0.0001182
-3376.866923 -0.01058994566 5.33e-05
-3357.932842 -0.0103970414 0.0002894
-3356.934686 -0.01024555997 0.000215
-3343.952887 -0.0095340875 5.54e-05
-3334.982404 -0.009495836377 0.0002084
-3290.119184 -0.007939182011 0.0003673
-3252.209954 -0.007189042879 9.84e-05
-3245.148512 -0.006759478276 0.000156
-3243.245578 -0.006734921539 0.0001521
-3232.247648 -0.006234491357 0.0003001
-3196.394811 -0.005059783459 0.000376
-3195.328482 -0.00528493143 0.0003713
-3191.376984 -0.005418726812 0.0003322
-3182.471917 -0.004877234951 4.05e-05
-3180.413185 -0.004810219774 6.27e-05
-3176.459357 -0.004722692178 5.49e-05
-3162.49016 -0.004310599863 0.000359
-3154.468215 -0.004316924566 0.000204
-3148.462819 -0.004481562864 0.0002894
-3146.472671 -0.003790619433 0.0002693
-3139.533559 -0.003664350923 0.0001875
-3138.525383 -0.003591709609 0.0001262
-3130.508748 -0.003067389253 0.0003787
-3125.535524 -0.003168989326 0.0001664
-3115.566131 -0.003130965441 0.0002274
-3112.556219 -0.003182259054 0.0002085
-3108.609301 -0.003212511617 0.0002719
-3107.615847 -0.003106256499 0.0002185
-3103.532549 -0.002760231021 0.0005548
-3085.645929 -0.002366081624 0.0002391
-3082.623674 -0.002209787603 0.0003189
-3079.660738 -0.002215521307 0.0002299
-3077.73681 -0.002198834832 0.0002552
-3076.66879 -0.00220867382 0.0003461
-3071.758455 -0.001634145259 0.0002677
-3062.681137 -0.001563169522 9.8e-05
-3058.636714 -0.001450488825 8.33e-05
-3052.73048 -0.001578152187 0.0002318
-3050.714111 -0.001205980962 0.0001031
-3046.753356 -0.001489427571 0.0002659
-3043.809279 -0.001535773755 0.0001885
-3039.85801 -0.0012446038 0.000311
-3036.797463 -0.001178301263 0.0002332
-3032.788599 -0.001161255418 0.0002506
-3028.809288 -0.001115693756 0.000283
-3021.815675 -0.0009338869033 0.0002171
-3016.908278 -0.0006995539804 0.0002041
-3014.922037 -0.000104125504 0.0002691
-3013.90393 -0.0009314655 0.0005079
-3008.933768 -0.0005545312438 0.0005509
-2996.773243 -0.0003897668715 0.0002528
-2995.909096 -0.0003001023516 0.0002421
-2990.943439 -0.0003312244701 0.0002652
-2979.953494 0.0001918955489 7.87e-05
-2976.978723 0.0002389488008 9.24e-05
-2974.955248 0.0003149616941 9.9e-05
-2969.02267 0.0003600557176 0.0002651
-2961.075899 0.0006952879754 0.0002958
-2953.017064 0.0006610890026 0.0002115
-2934.10798 0.000735016826 0.0001698
-2925.077662 0.001041139745 0.0003239
-2924.10713 0.0009012854695 0.0001593
-2914.135726 0.001017853008 0.0001777
-2855.300984 0.001316723176 0.0002585
-2810.448513 0.001784595972 0.0002339
-2805.398687 0.001691949876 0.0001865
-2795.492921 0.001620689975 0.0002312
-2792.511823 0.001791509867 0.0001435
-2788.395475 0.001622871391 0.0001975
-2782.484892 0.001669148989 0.0001989
-2781.489305 0.001906360393 0.0002981
-2778.501371 0.001909353814 0.0003001
-2776.520874 0.001791172012 0.000203
-2764.443787 0.001739102323 0.0001835
-2760.560183 0.001816088448 0.0002428
-2747.584661 0.001691994725 0.0002151
-2744.553649 0.001555215998 0.0002069
-2739.616979 0.001239986974 0.000338
-2738.687916 0.001630510292 0.0002317
-2736.684965 0.001644559744 0.0002716
-2733.65763 0.001617327191 0.0001694
-2718.716031 0.001688086911 0.0002235
-2713.675036 0.00180476046 7.9e-05
-2710.703457 0.001700088661 0.0002044
-2707.677452 0.001795765127 8.96e-05
-2705.717513 0.00175856421 0.0001544
-2702.730145 0.001912371684 0.0001201
-2694.771892 0.001756851707 6.04e-05
-2689.769371 0.001764524993 0.0001113
-2688.754736 0.001723629495 0.000338
-2685.826243 0.001487623747 0.0002021
-2634.931181 0.001197486746 0.0002978
-2629.956923 0.001356168306 0.0002579
-2623.014421 0.001523402093 0.0003071
-2598.065225 0.001123859581 0.0004092
-2565.066944 0.0008756213984 0.000191
-2431.382625 0.001048416714 0.0002219
-2428.48673 0.001181055786 0.0005572
-2414.462588 0.001164767487 7.39e-05
-2412.575919 0.001422833344 0.000116
-2407.571665 0.001404237549 0.0004638
-2404.600834 0.0007328907568 0.0002571
-2399.530179 0.001133426441 0.0002034
-2397.532465 0.001231206756 0.0001802
-2369.65489 0.001626201935 0.0003622
-2358.667743 0.001287983695 0.0002797
-2331.790064 0.001478846104 0.0002992
-2327.779764 0.001730854428 0.0002202
-2292.860943 0.001951110623 0.0007257
-2285.852664 0.002176127532 0.0002538
-2280.836863 0.002293254145 0.0002684
-2265.91541 0.002179193878 0.0003005
-2259.927568 0.002262064777 0.0003315
-2254.972506 0.003127396114 0.0002073
-2250.01421 0.002172439606 0.0002814
-2242.966612 0.002658060753 0.0002351
-2232.006702 0.002557114904 0.000269
-2230.983623 0.002749202242 0.0002195
-2186.167939 0.003259446835 0.0002502
-2179.140242 0.003391880337 0.0003095
-2173.15011 0.003712330651 0.0002177
-2166.141798 0.003478403901 0.0004153
-2063.475342 0.006421990766 0.0002249
-2062.446485 0.006235965737 0.0002338
-2042.496141 0.006650742014 0.000236
-2033.532838 0.006786403094 0.0002576
-1988.671819 0.0077005953 0.000746
-1974.742974 0.008429419213 0.0002219
-1970.725583 0.008727263505 0.0003269
-1961.779933 0.009318124083 0.0004499
-1916.845307 0.01013532182 0.0002524
-1896.925082 0.01069830835 0.0003017
-1599.689125 0.0197408299 0.000218
-1562.839275 0.02087513882 0.0012662
-1302.417328 0.02287983608 0.0001861
-1297.646228 0.02251136206 0.0001465
-1284.607544 0.02232299991 0.0002117
-1268.719407 0.02255384889 0.0003312
-1267.666241 0.02226793195 0.0002235
-1263.721078 0.02297603298 0.0004549
-1256.700865 0.02220117582 0.0011226
-1220.528876 0.02176932347 0.0002117
-1184.852879 0.02137458434 0.0002948
-1177.878698 0.02124011241 0.0005949
-1173.934683 0.02136165677 0.0002457
-1126.018151 0.02085646269 0.0002235
-1122.030017 0.02128644892 0.0008946
-1109.103586 0.02050742637 0.0002922
-1083.183583 0.02019782524 0.000328
-1072.162245 0.02015719535 0.0005353
-1070.018679 0.02001869118 0.0004045
-1064.157097 0.02052011357 0.0004396
-1060.220641 0.02007601734 0.0004708
-1059.194656 0.02054625061 0.0002306
-1054.245863 0.02041150435 0.0006452
-1051.177674 0.01999342059 0.0002896
-1013.353679 0.02045966919 0.0004431
-1011.385476 0.02080542665 0.0006477
-997.3471509 0.01958808956 0.0002736
-994.4317886 0.01979245899 0.0002604
-989.4403613 0.02047275324 0.0002707
-961.1917056 0.0197446808 0.0002586
-958.4603799 0.01995779101 0.0002582
-955.5141765 0.01983643284 0.0002228
-946.4972826 0.01991294698 0.0002787
-941.536524 0.01990046536 0.0002283
-917.6644448 0.01932314441 0.0002847
-909.7022594 0.02045407883 0.0005991
-905.6163418 0.01992754975 0.0002396
-880.7645144 0.0199316084 0.0002998
-861.7934812 0.02033133637 0.000304
-852.6443352 0.01989521975 0.0002325
-848.7555604 0.01972364706 0.0002672
-840.8301742 0.01992681022 0.0002953
-836.6624761 0.01996452476 0.0001636
-834.8461716 0.02015862608 9.8e-05
-828.8384351 0.02012907994 0.0001359
-809.8844965 0.02006025838 0.0002295
-806.9219042 0.02015396412 0.0002422
-799.8997542 0.02080544594 0.0002456
-790.9667087 0.02018071744 0.000243
-784.027086 0.02056685112 0.0003803
-773.005337 0.02021726955 0.0003064
-770.0226545 0.02032650236 0.0002983
-755.0441869 0.02065150759 0.0002587
-717.2008392 0.02074947766 0.0002377
-713.1747406 0.02109560799 0.0002008
-705.2002203 0.02067879761 0.000335
-697.2558434 0.02097049772 0.0002256
-664.2574158 0.02129745159 0.0002646
-652.2525375 0.02149747165 0.0001379
-644.3681931 0.02141961094 0.0002676
-635.4147618 0.02151721257 0.0003577
-626.4374488 0.02196816759 0.0002872
-623.4373843 0.02191406092 0.0002478
-583.5059974 0.02268601665 0.0002768
-578.5353494 0.02259187825 0.0002667
-460.8669282 0.02440853032 0.00021
-459.8548618 0.02464239276 0.0002166
-430.9688673 0.02515649252 0.0002355
-423.9626628 0.02532796555 0.0003323
-406.9500498 0.02551090269 0.0002892
-402.0368573 0.02550798323 0.0002524
-384.0473028 0.02589570459 0.0002431
-380.0905102 0.02627314886 0.0003278
-357.1996138 0.02606144716 0.0003604
-328.2744972 0.02700174447 0.0003638
-286.2286445 0.02780427145 0.0002463
-277.3561726 0.02789660579 0.0002031
-250.4591442 0.02834417286 0.0002845
-241.518712 0.0281065078 0.0002809
-202.6266198 0.02911933473 0.0002532
-181.5969924 0.02960214851 0.0002297
-176.6965367 0.02967835608 0.0002323
-147.7437792 0.02984412383 0.0002422
-133.8234087 0.03003529059 0.0006169
-123.7068076 0.03049268714 0.0002507
-119.7225304 0.0302528546 0.0002043
-106.8206931 0.03056201538 0.0002436
-93.84346028 0.03055211589 0.0002323
-81.94085394 0.03066708731 0.0001886
-78.82282525 0.03081109084 0.0001659
-69.95254434 0.03082358486 0.0002788
-57.96758309 0.03087243584 0.0001961
-51.98677248 0.03038061984 0.0003153
-48.01827682 0.03081818574 0.0001991
-45.02073983 0.03065490914 0.0002444
-8.033280881 0.03023725176 0.000248
26.77374769 0.03094879526 0.0001576
31.79464598 0.03072139745 0.0001902
56.70555633 0.03034583438 0.0002165
58.73160944 0.03059053963 0.0002269
64.76074977 0.03067141639 0.0002889
79.60348702 0.03054605461 0.0005056
99.68881195 0.03002989525 0.00036
157.5887891 0.02967487254 0.0001819
163.4655791 0.02957597481 0.0001824
168.393421 0.02933165732 0.0006102
175.4452802 0.02930821767 0.0006031
212.2761221 0.02867563322 0.000156
245.1814062 0.0281510187 0.0002546
254.2046287 0.02810010191 0.0002485
416.7736556 0.02551589111 0.0002252
450.615324 0.02493682633 0.0002968
468.7593396 0.02471249566 0.000396
476.8251447 0.02419078495 0.0003616
485.5111761 0.02459433344 0.0009895
494.543853 0.0241989178 0.0002627
505.5515042 0.02461481384 9.62e-05
506.526197 0.02405659827 0.000324
525.3832903 0.023624955 0.0002689
536.3499652 0.0235950273 0.0002953
555.3111859 0.02359543543 0.0002369
565.2807061 0.0236255644 0.0004624
573.2834751 0.02314876087 0.0001659
579.2657305 0.0235999448 0.0002168
586.2673482 0.02368999352 0.0001702
595.2166116 0.02336716011 0.0002904
636.1095739 0.02293887457 0.0002807
644.1335904 0.02282635417 0.000216
668.0239091 0.02275592595 0.0002211
680.0113908 0.02280126791 0.000229
717.9286134 0.02253527318 0.0002605
763.7963775 0.02249153121 0.0002919
768.7747159 0.02242114156 0.0003142
773.7969031 0.02237401705 0.0002704
776.8268735 0.02237854194 0.0002628
780.7215743 0.02235353595 0.0002305
789.6876782 0.0225129324 0.0002466
804.7694879 0.02246434474 0.0002226
815.775933 0.02253455238 0.0002972
835.6140718 0.02258724259 0.0004067
842.5926697 0.02260320726 0.0002764
856.4883311 0.02259452684 0.0002542
863.5213316 0.0228494764 0.0002664
870.4934051 0.02234784595 0.0003005
902.4251148 0.02316896789 0.000207
910.3787666 0.02286117302 0.0002367
922.3117557 0.0226478149 0.0002138
926.3121269 0.02307233594 0.0003985
936.2684674 0.02274926838 0.0002582
942.2442889 0.02267193537 0.0005131
957.2310645 0.0228780093 0.0002495
960.3001566 0.02314304473 0.0003163
971.2176242 0.02332186868 0.0003084
984.2095569 0.02386437123 9.02e-05
1019.05196 0.02418676718 0.0002562
1020.089894 0.02418488808 7.77e-05
1022.043096 0.02416149325 8.09e-05
1023.050821 0.02435733609 0.0006835
1024.096035 0.02379126964 0.000191
1028.015143 0.02378886881 0.00057
1030.023084 0.02418906238 0.000223
1031.042602 0.02424558326 5.81e-05
1034.053984 0.02419209139 7.91e-05
1037.052153 0.02435665077 0.0001084
1038.067987 0.02401871514 0.0001472
1039.995559 0.02418039384 0.0001327
1055.997594 0.02431892893 0.0001151
1058.040307 0.02439031227 5.64e-05
1066.923728 0.02458385932 0.0001641
1078.903454 0.02466815893 6.08e-05
1082.896185 0.02498752973 0.0002104
1106.92675 0.02483081366 8.88e-05
1179.650351 0.02533604128 0.0001214
1200.599383 0.02533847417 0.0001282
1235.457733 0.02568727289 0.0001682
1259.448307 0.02544638457 0.0003112
1311.249032 0.02572213726 0.0001108
1316.28275 0.02587586509 0.0002843
1336.190836 0.02545677937 0.0001185
1346.146208 0.02570562659 0.0001964
1369.093793 0.02533075655 9.76e-05
1380.05012 0.0249102625 0.0001544
1398.057101 0.0257633793 0.0003078
1425.97014 0.02478466748 6.04e-05
1439.950143 0.02463963919 0.0001796
1452.949971 0.02404767315 0.0005451
1460.861334 0.02421268093 0.0002038
1496.741904 0.02359642353 0.0001829
1502.751964 0.0233358626 6.65e-05
1521.763059 0.02230220629 0.0002695
1533.999724 0.02266069145 0.0002196
1549.836845 0.02243602015 0.0001023
1562.6458 0.02199000535 0.0001286
1586.875906 0.02120089927 0.0001448
1606.584658 0.02065986507 7.76e-05
1616.479367 0.02042413309 6.35e-05
1618.474604 0.02036222141 8.52e-05
1653.465536 0.01930683528 0.0002701
1656.393948 0.01930934908 0.0002488
1658.337966 0.01929324971 0.0002239
1659.607807 0.0191249969 0.0005649
1660.376847 0.01971630862 0.000408
1667.274781 0.01940307299 0.0003214
1677.229735 0.01844250251 0.0004186
1682.284594 0.01829186977 6.15e-05
1697.289212 0.01777079217 6.19e-05
1701.245079 0.0176044196 7.33e-05
1708.173435 0.01753470169 7.43e-05
1722.159372 0.01693643027 9.31e-05
1740.077811 0.01649128727 6.32e-05
1764.015953 0.01568587916 7.29e-05
1772.018682 0.01547975877 0.0001827
1788.931653 0.01433363822 0.0002714
1801.975749 0.01456063637 6.24e-05
1804.894978 0.01439728908 9.1e-05
1816.904758 0.01409202767 8.46e-05
1819.864496 0.01403823896 0.0001275
1846.083249 0.01329224372 6.72e-05
1863.083671 0.01273489783 0.0001053
1877.720331 0.01232676133 6.56e-05
1904.797233 0.01175939387 0.0001462
1929.916305 0.01097718097 9.41e-05
1962.527555 0.01005006467 5.23e-05
1991.465818 0.009249788274 6.21e-05
2013.341059 0.008790371198 5.9e-05
2018.345963 0.00855087665 6.61e-05
2032.306608 0.008232577964 5.73e-05
2046.265332 0.007973992145 7.27e-05
2063.262668 0.007502420197 5e-05
2067.1813 0.00749975907 6.96e-05
2082.257991 0.007166444473 5.62e-05
2095.156828 0.006766760338 8.58e-05
2111.062656 0.006462427206 8.95e-05
2133.038455 0.005902120494 8.6e-05
2161.980264 0.005539464136 5.22e-05
2183.892739 0.005021303819 6.58e-05
2191.860418 0.004796483575 5.82e-05
2219.832105 0.004275219344 4.87e-05
2237.776158 0.003942803787 6.6e-05
2257.006843 0.003665910604 6.18e-05
2288.706749 0.003185665278 6.2e-05
2375.377971 0.002041482815 7.58e-05
2382.35689 0.001975224228 6.91e-05
2393.344191 0.001909167683 5.3e-05
2399.337838 0.001836933543 5.67e-05
2456.273699 0.001074354203 5.69e-05
2464.2113 0.000994786442 5.28e-05
2486.013789 0.0007956592483 0.000119
2509.960928 0.0003793779114 6.38e-05
2536.077772 -1.514753899e-06 6.7e-05
2554.883265 -0.0002181326683 5.59e-05
2595.784155 -0.000626300836 0.0001292
2617.061379 -0.001180361904 0.0001048
2645.794852 -0.001737739596 4.12e-05
2657.571857 -0.00182456682 6.48e-05
2704.602866 -0.002923779652 8.17e-05
2736.356939 -0.003941346142 9.84e-05
2754.332014 -0.004626861774 0.0001416
2761.295086 -0.004667353726 4.96e-05
2784.277405 -0.005471650372 4.2e-05
2812.182439 -0.006495775201 6.5e-05
2829.116691 -0.007190809388 5.44e-05
2859.0507 -0.008611586181 0.0001708
2871.048656 -0.009059362435 8.71e-05
2882.929108 -0.009437625021 9.22e-05
2954.794993 -0.01276652955 0.0001116
2977.718306 -0.01445126211 0.000699
2991.679747 -0.01477101964 0.0005534
2993.686433 -0.01415834298 0.0002357
3017.764258 -0.0157633137 4.7e-05
3040.685249 -0.01693785913 6.26e-05
3054.867001 -0.01755773356 0.0001309
3071.455462 -0.01836281697 5.65e-05
3094.481163 -0.01966293644 0.000139
3110.316136 -0.02038809983 8.06e-05
3121.344045 -0.02099482312 5.93e-05
3127.314665 -0.02126651697 0.000135
3142.272892 -0.02197341048 8.73e-05
3147.294334 -0.02234647919 7.02e-05
3162.209427 -0.02288704286 9.18e-05
3197.106241 -0.02466417196 8.2e-05
3230.079406 -0.02635177529 0.0001077
3256.943658 -0.02755289585 0.0001702
3273.927964 -0.02833671619 0.0001346
3320.759782 -0.03027304317 4.89e-05
3363.651153 -0.03216530935 8.9e-05
3392.574812 -0.03342381912 0.0002161
3417.480323 -0.03461747956 0.000122
3448.417587 -0.03583888574 0.0001942
3487.421388 -0.03735653782 0.0001584
3500.341564 -0.03798872401 6.28e-05
3531.240831 -0.03919334983 8.95e-05
3545.191826 -0.03973966812 5.22e-05
3561.115285 -0.04036505642 4.8e-05
3589.03172 -0.0415258673 0.0001817
3604.977945 -0.04192393674 4.81e-05
3620.911367 -0.04289961425 0.0001758
3636.877017 -0.04319783465 7.52e-05
3650.865657 -0.04394348557 0.0001917
3666.859244 -0.04416270997 7.01e-05
3728.658434 -0.04649496759 4.57e-05
3737.769965 -0.04694964835 6.33e-05
3745.670053 -0.04725402128 5.17e-05
3760.756045 -0.04770014741 4.5e-05
3786.547305 -0.04872405839 9.3e-05
3801.723104 -0.04931220048 9.32e-05
3826.378687 -0.05023381458 5.85e-05
3842.326972 -0.05096534901 0.0001675
3857.37861 -0.05140591859 0.0001394
3877.246489 -0.05224611506 0.0003526
3893.350752 -0.05288074574 0.0001632
3907.174707 -0.05354132806 0.0001345
3948.065632 -0.0554491635 0.0001798
